h1 10 0 "iperf -c 10.0.2.1 -i 1 -t 60 -p 5000 -u -b 0.5M -e"
r1 10 0 "iperf -s -e -p 5000 -u -i -1"

h2 10 0 "iperf -c 10.0.2.2 -i 1 -t 60 -p 5001 -u -b 1M -e"
r2 10 0 "iperf -s -e -p 5001 -u -i -1"

h3 10 0 "iperf -c 10.0.2.3 -i 1 -t 60 -p 5002 -u -b 3M -e"
r3 10 0 "iperf -s -e -p 5002 -u -i -1"
