------------------------------------------------------------
Server listening on UDP port 5001 with pid 247876
Receiving 1470 byte datagrams
UDP buffer size:  208 KByte (default)
------------------------------------------------------------
[  6] local 10.0.2.2 port 5001 connected with 10.0.1.2 port 38847
[ ID] Interval            Transfer     Bandwidth        Jitter   Lost/Total  Latency avg/min/max/stdev PPS  NetPwr
[  6] 0.0000-1.0000 sec   100 KBytes   823 Kbits/sec   3.331 ms    0/   70 (0%) 113.922/ 0.738/227.790/67.436 ms   69 pps  0.90
[  6] 1.0000-2.0000 sec  97.6 KBytes   800 Kbits/sec   4.058 ms    0/   68 (0%) 346.165/227.790/464.913/65.511 ms   68 pps  0.29
[  6] 2.0000-3.0000 sec  89.0 KBytes   729 Kbits/sec   7.981 ms    0/   62 (0%) 609.909/460.216/771.167/95.098 ms   62 pps  0.15
[  6] 3.0000-4.0000 sec  81.8 KBytes   670 Kbits/sec   9.837 ms    0/   57 (0%) 952.915/762.404/1120.504/96.191 ms   57 pps  0.09
[  6] 4.0000-5.0000 sec  86.1 KBytes   706 Kbits/sec  10.094 ms    0/   60 (0%) 1298.680/1112.587/1468.863/101.641 ms   59 pps  0.07
[  6] 5.0000-6.0000 sec  86.1 KBytes   706 Kbits/sec   9.767 ms    0/   60 (0%) 1652.965/1463.081/1823.588/101.358 ms   58 pps  0.05
[  6] 6.0000-7.0000 sec  83.3 KBytes   682 Kbits/sec   7.595 ms    0/   58 (0%) 2003.939/1812.703/2133.061/99.846 ms   61 pps  0.04
[  6] 7.0000-8.0000 sec  83.3 KBytes   682 Kbits/sec   9.209 ms    0/   58 (0%) 2348.487/2124.589/2484.667/100.368 ms   58 pps  0.04
[  6] 8.0000-9.0000 sec  83.3 KBytes   682 Kbits/sec   9.582 ms    0/   58 (0%) 2690.030/2475.884/2831.190/98.978 ms   58 pps  0.03
[  6] 9.0000-10.0000 sec  86.1 KBytes   706 Kbits/sec   9.753 ms    0/   60 (0%) 3039.053/2823.332/3185.613/102.678 ms   58 pps  0.03
[  6] 10.0000-11.0000 sec   113 KBytes   929 Kbits/sec   1.849 ms    0/   79 (0%) 3322.691/3176.824/3344.448/42.261 ms   82 pps  0.03
[  6] 11.0000-12.0000 sec   148 KBytes  1.21 Mbits/sec   1.505 ms    0/  103 (0%) 3219.178/3112.371/3263.027/44.374 ms  103 pps  0.05
[  6] 0.0000-12.9676 sec  1.25 MBytes   809 Kbits/sec   1.652 ms    0/  892 (0%) 1980.442/ 0.738/3344.448/1129.357 ms   68 pps  0.05
