{
  "header_types" : [
    {
      "name" : "scalars_0",
      "id" : 0,
      "fields" : [
        ["userMetadata._codel_drop_time0", 48, false],
        ["userMetadata._codel_time_now1", 48, false],
        ["userMetadata._codel_ok_to_drop2", 1, false],
        ["userMetadata._codel_state_dropping3", 1, false],
        ["userMetadata._codel_delta4", 32, false],
        ["userMetadata._codel_time_since_last_dropping5", 48, false],
        ["userMetadata._codel_drop_next6", 48, false],
        ["userMetadata._codel_drop_cnt7", 32, false],
        ["userMetadata._codel_last_drop_cnt8", 32, false],
        ["userMetadata._codel_reset_drop_time9", 1, false],
        ["userMetadata._codel_new_drop_time10", 48, false],
        ["userMetadata._codel_new_drop_time_helper11", 48, false],
        ["userMetadata._codel_queue_id12", 9, false],
        ["_padding_0", 4, false]
      ]
    },
    {
      "name" : "standard_metadata",
      "id" : 1,
      "fields" : [
        ["ingress_port", 9, false],
        ["egress_spec", 9, false],
        ["egress_port", 9, false],
        ["instance_type", 32, false],
        ["packet_length", 32, false],
        ["enq_timestamp", 32, false],
        ["enq_qdepth", 19, false],
        ["deq_timedelta", 32, false],
        ["deq_qdepth", 19, false],
        ["ingress_global_timestamp", 48, false],
        ["egress_global_timestamp", 48, false],
        ["mcast_grp", 16, false],
        ["egress_rid", 16, false],
        ["checksum_error", 1, false],
        ["parser_error", 32, false],
        ["priority", 3, false],
        ["qid", 5, false],
        ["_padding", 6, false]
      ]
    },
    {
      "name" : "ethernet_t",
      "id" : 2,
      "fields" : [
        ["dst_addr", 48, false],
        ["src_addr", 48, false],
        ["ethertype", 16, false]
      ]
    },
    {
      "name" : "ipv4_t",
      "id" : 3,
      "fields" : [
        ["version", 4, false],
        ["ihl", 4, false],
        ["diffserv", 8, false],
        ["totalLen", 16, false],
        ["identification", 16, false],
        ["flags", 3, false],
        ["fragOffset", 13, false],
        ["ttl", 8, false],
        ["protocol", 8, false],
        ["hdrChecksum", 16, false],
        ["srcAddr", 32, false],
        ["dstAddr", 32, false]
      ]
    },
    {
      "name" : "tcp_t",
      "id" : 4,
      "fields" : [
        ["srcPort", 16, false],
        ["dstPort", 16, false],
        ["seqNo", 32, false],
        ["ackNo", 32, false],
        ["dataOffset", 4, false],
        ["res", 4, false],
        ["flags", 8, false],
        ["window", 16, false],
        ["checksum", 16, false],
        ["urgentPtr", 16, false]
      ]
    },
    {
      "name" : "udp_t",
      "id" : 5,
      "fields" : [
        ["sourcePort", 16, false],
        ["destPort", 16, false],
        ["length_", 16, false],
        ["checksum", 16, false]
      ]
    }
  ],
  "headers" : [
    {
      "name" : "scalars",
      "id" : 0,
      "header_type" : "scalars_0",
      "metadata" : true,
      "pi_omit" : true
    },
    {
      "name" : "standard_metadata",
      "id" : 1,
      "header_type" : "standard_metadata",
      "metadata" : true,
      "pi_omit" : true
    },
    {
      "name" : "ethernet",
      "id" : 2,
      "header_type" : "ethernet_t",
      "metadata" : false,
      "pi_omit" : true
    },
    {
      "name" : "ipv4",
      "id" : 3,
      "header_type" : "ipv4_t",
      "metadata" : false,
      "pi_omit" : true
    },
    {
      "name" : "tcp",
      "id" : 4,
      "header_type" : "tcp_t",
      "metadata" : false,
      "pi_omit" : true
    },
    {
      "name" : "udp",
      "id" : 5,
      "header_type" : "udp_t",
      "metadata" : false,
      "pi_omit" : true
    }
  ],
  "header_stacks" : [],
  "header_union_types" : [],
  "header_unions" : [],
  "header_union_stacks" : [],
  "field_lists" : [],
  "errors" : [
    ["NoError", 0],
    ["PacketTooShort", 1],
    ["NoMatch", 2],
    ["StackOutOfBounds", 3],
    ["HeaderTooShort", 4],
    ["ParserTimeout", 5],
    ["ParserInvalidArgument", 6]
  ],
  "enums" : [],
  "parsers" : [
    {
      "name" : "parser",
      "id" : 0,
      "init_state" : "start",
      "parse_states" : [
        {
          "name" : "start",
          "id" : 0,
          "parser_ops" : [
            {
              "parameters" : [
                {
                  "type" : "regular",
                  "value" : "ethernet"
                }
              ],
              "op" : "extract"
            }
          ],
          "transitions" : [
            {
              "type" : "hexstr",
              "value" : "0x0800",
              "mask" : null,
              "next_state" : "parse_ipv4"
            },
            {
              "type" : "default",
              "value" : null,
              "mask" : null,
              "next_state" : null
            }
          ],
          "transition_key" : [
            {
              "type" : "field",
              "value" : ["ethernet", "ethertype"]
            }
          ]
        },
        {
          "name" : "parse_ipv4",
          "id" : 1,
          "parser_ops" : [
            {
              "parameters" : [
                {
                  "type" : "regular",
                  "value" : "ipv4"
                }
              ],
              "op" : "extract"
            }
          ],
          "transitions" : [
            {
              "type" : "hexstr",
              "value" : "0x11",
              "mask" : null,
              "next_state" : "parse_udp"
            },
            {
              "type" : "hexstr",
              "value" : "0x06",
              "mask" : null,
              "next_state" : "parse_tcp"
            },
            {
              "type" : "default",
              "value" : null,
              "mask" : null,
              "next_state" : null
            }
          ],
          "transition_key" : [
            {
              "type" : "field",
              "value" : ["ipv4", "protocol"]
            }
          ]
        },
        {
          "name" : "parse_tcp",
          "id" : 2,
          "parser_ops" : [
            {
              "parameters" : [
                {
                  "type" : "regular",
                  "value" : "tcp"
                }
              ],
              "op" : "extract"
            }
          ],
          "transitions" : [
            {
              "type" : "default",
              "value" : null,
              "mask" : null,
              "next_state" : null
            }
          ],
          "transition_key" : []
        },
        {
          "name" : "parse_udp",
          "id" : 3,
          "parser_ops" : [
            {
              "parameters" : [
                {
                  "type" : "regular",
                  "value" : "udp"
                }
              ],
              "op" : "extract"
            }
          ],
          "transitions" : [
            {
              "type" : "default",
              "value" : null,
              "mask" : null,
              "next_state" : null
            }
          ],
          "transition_key" : []
        }
      ]
    }
  ],
  "parse_vsets" : [],
  "deparsers" : [
    {
      "name" : "deparser",
      "id" : 0,
      "source_info" : {
        "filename" : "/home/tobias/student_theses/codel/2_switch/4_Priority_Repeater/codel.p4",
        "line" : 339,
        "column" : 8,
        "source_fragment" : "DeparserImpl"
      },
      "order" : ["ethernet", "ipv4", "tcp", "udp"],
      "primitives" : []
    }
  ],
  "meter_arrays" : [],
  "counter_arrays" : [],
  "register_arrays" : [
    {
      "name" : "r_drop_count",
      "id" : 0,
      "source_info" : {
        "filename" : "/home/tobias/student_theses/codel/2_switch/4_Priority_Repeater/codel.p4",
        "line" : 29,
        "column" : 25,
        "source_fragment" : "r_drop_count"
      },
      "size" : 64,
      "bitwidth" : 32
    },
    {
      "name" : "r_drop_time",
      "id" : 1,
      "source_info" : {
        "filename" : "/home/tobias/student_theses/codel/2_switch/4_Priority_Repeater/codel.p4",
        "line" : 30,
        "column" : 25,
        "source_fragment" : "r_drop_time"
      },
      "size" : 64,
      "bitwidth" : 48
    },
    {
      "name" : "r_last_drop_count",
      "id" : 2,
      "source_info" : {
        "filename" : "/home/tobias/student_theses/codel/2_switch/4_Priority_Repeater/codel.p4",
        "line" : 31,
        "column" : 25,
        "source_fragment" : "r_last_drop_count"
      },
      "size" : 64,
      "bitwidth" : 32
    },
    {
      "name" : "r_next_drop",
      "id" : 3,
      "source_info" : {
        "filename" : "/home/tobias/student_theses/codel/2_switch/4_Priority_Repeater/codel.p4",
        "line" : 32,
        "column" : 25,
        "source_fragment" : "r_next_drop"
      },
      "size" : 64,
      "bitwidth" : 48
    },
    {
      "name" : "r_state_dropping",
      "id" : 4,
      "source_info" : {
        "filename" : "/home/tobias/student_theses/codel/2_switch/4_Priority_Repeater/codel.p4",
        "line" : 33,
        "column" : 24,
        "source_fragment" : "r_state_dropping"
      },
      "size" : 64,
      "bitwidth" : 1
    }
  ],
  "calculations" : [
    {
      "name" : "calc",
      "id" : 0,
      "source_info" : {
        "filename" : "/home/tobias/student_theses/codel/2_switch/4_Priority_Repeater/codel.p4",
        "line" : 317,
        "column" : 8,
        "source_fragment" : "update_checksum( ..."
      },
      "algo" : "csum16",
      "input" : [
        {
          "type" : "field",
          "value" : ["ipv4", "version"]
        },
        {
          "type" : "field",
          "value" : ["ipv4", "ihl"]
        },
        {
          "type" : "field",
          "value" : ["ipv4", "diffserv"]
        },
        {
          "type" : "field",
          "value" : ["ipv4", "totalLen"]
        },
        {
          "type" : "field",
          "value" : ["ipv4", "identification"]
        },
        {
          "type" : "field",
          "value" : ["ipv4", "flags"]
        },
        {
          "type" : "field",
          "value" : ["ipv4", "fragOffset"]
        },
        {
          "type" : "field",
          "value" : ["ipv4", "ttl"]
        },
        {
          "type" : "field",
          "value" : ["ipv4", "protocol"]
        },
        {
          "type" : "field",
          "value" : ["ipv4", "srcAddr"]
        },
        {
          "type" : "field",
          "value" : ["ipv4", "dstAddr"]
        }
      ]
    }
  ],
  "learn_lists" : [],
  "actions" : [
    {
      "name" : "NoAction",
      "id" : 0,
      "runtime_data" : [],
      "primitives" : []
    },
    {
      "name" : "ingress.drop",
      "id" : 1,
      "runtime_data" : [],
      "primitives" : [
        {
          "op" : "mark_to_drop",
          "parameters" : [
            {
              "type" : "header",
              "value" : "standard_metadata"
            }
          ],
          "source_info" : {
            "filename" : "/home/tobias/student_theses/codel/2_switch/4_Priority_Repeater/codel.p4",
            "line" : 148,
            "column" : 8,
            "source_fragment" : "mark_to_drop(standard_metadata)"
          }
        }
      ]
    },
    {
      "name" : "ingress.forward_slicing",
      "id" : 2,
      "runtime_data" : [
        {
          "name" : "egress_spec",
          "bitwidth" : 9
        },
        {
          "name" : "dst_mac",
          "bitwidth" : 48
        }
      ],
      "primitives" : [
        {
          "op" : "assign",
          "parameters" : [
            {
              "type" : "field",
              "value" : ["standard_metadata", "egress_spec"]
            },
            {
              "type" : "runtime_data",
              "value" : 0
            }
          ],
          "source_info" : {
            "filename" : "/home/tobias/student_theses/codel/2_switch/4_Priority_Repeater/codel.p4",
            "line" : 152,
            "column" : 8,
            "source_fragment" : "standard_metadata.egress_spec = egress_spec"
          }
        },
        {
          "op" : "assign",
          "parameters" : [
            {
              "type" : "field",
              "value" : ["ethernet", "dst_addr"]
            },
            {
              "type" : "runtime_data",
              "value" : 1
            }
          ],
          "source_info" : {
            "filename" : "/home/tobias/student_theses/codel/2_switch/4_Priority_Repeater/codel.p4",
            "line" : 153,
            "column" : 8,
            "source_fragment" : "hdr.ethernet.dst_addr = dst_mac"
          }
        },
        {
          "op" : "assign",
          "parameters" : [
            {
              "type" : "field",
              "value" : ["ipv4", "ttl"]
            },
            {
              "type" : "expression",
              "value" : {
                "type" : "expression",
                "value" : {
                  "op" : "&",
                  "left" : {
                    "type" : "expression",
                    "value" : {
                      "op" : "+",
                      "left" : {
                        "type" : "field",
                        "value" : ["ipv4", "ttl"]
                      },
                      "right" : {
                        "type" : "hexstr",
                        "value" : "0xff"
                      }
                    }
                  },
                  "right" : {
                    "type" : "hexstr",
                    "value" : "0xff"
                  }
                }
              }
            }
          ],
          "source_info" : {
            "filename" : "/home/tobias/student_theses/codel/2_switch/4_Priority_Repeater/codel.p4",
            "line" : 154,
            "column" : 8,
            "source_fragment" : "hdr.ipv4.ttl = hdr.ipv4.ttl -1"
          }
        }
      ]
    },
    {
      "name" : "ingress.set_priority",
      "id" : 3,
      "runtime_data" : [
        {
          "name" : "value",
          "bitwidth" : 7
        }
      ],
      "primitives" : [
        {
          "op" : "assign",
          "parameters" : [
            {
              "type" : "field",
              "value" : ["standard_metadata", "priority"]
            },
            {
              "type" : "expression",
              "value" : {
                "type" : "expression",
                "value" : {
                  "op" : "&",
                  "left" : {
                    "type" : "expression",
                    "value" : {
                      "op" : "&",
                      "left" : {
                        "type" : "local",
                        "value" : 0
                      },
                      "right" : {
                        "type" : "hexstr",
                        "value" : "0x07"
                      }
                    }
                  },
                  "right" : {
                    "type" : "hexstr",
                    "value" : "0x07"
                  }
                }
              }
            }
          ],
          "source_info" : {
            "filename" : "/home/tobias/student_theses/codel/2_switch/4_Priority_Repeater/codel.p4",
            "line" : 173,
            "column" : 8,
            "source_fragment" : "standard_metadata.priority = (bit<3>)value"
          }
        }
      ]
    },
    {
      "name" : "codel308",
      "id" : 4,
      "runtime_data" : [],
      "primitives" : [
        {
          "op" : "mark_to_drop",
          "parameters" : [
            {
              "type" : "header",
              "value" : "standard_metadata"
            }
          ],
          "source_info" : {
            "filename" : "/home/tobias/student_theses/codel/2_switch/4_Priority_Repeater/codel.p4",
            "line" : 308,
            "column" : 4,
            "source_fragment" : "mark_to_drop(standard_metadata)"
          }
        }
      ]
    }
  ],
  "pipelines" : [
    {
      "name" : "ingress",
      "id" : 0,
      "source_info" : {
        "filename" : "/home/tobias/student_theses/codel/2_switch/4_Priority_Repeater/codel.p4",
        "line" : 146,
        "column" : 8,
        "source_fragment" : "ingress"
      },
      "init_table" : "ingress.slice_forwarding",
      "tables" : [
        {
          "name" : "ingress.slice_forwarding",
          "id" : 0,
          "source_info" : {
            "filename" : "/home/tobias/student_theses/codel/2_switch/4_Priority_Repeater/codel.p4",
            "line" : 156,
            "column" : 10,
            "source_fragment" : "slice_forwarding"
          },
          "key" : [
            {
              "match_type" : "exact",
              "name" : "hdr.ipv4.srcAddr",
              "target" : ["ipv4", "srcAddr"],
              "mask" : null
            },
            {
              "match_type" : "lpm",
              "name" : "hdr.ipv4.dstAddr",
              "target" : ["ipv4", "dstAddr"],
              "mask" : null
            }
          ],
          "match_type" : "lpm",
          "type" : "simple",
          "max_size" : 1024,
          "with_counters" : false,
          "support_timeout" : false,
          "direct_meters" : null,
          "action_ids" : [2, 1, 0],
          "actions" : ["ingress.forward_slicing", "ingress.drop", "NoAction"],
          "base_default_next" : "ingress.slice_priority",
          "next_tables" : {
            "ingress.forward_slicing" : "ingress.slice_priority",
            "ingress.drop" : "ingress.slice_priority",
            "NoAction" : "ingress.slice_priority"
          },
          "default_entry" : {
            "action_id" : 0,
            "action_const" : false,
            "action_data" : [],
            "action_entry_const" : false
          }
        },
        {
          "name" : "ingress.slice_priority",
          "id" : 1,
          "source_info" : {
            "filename" : "/home/tobias/student_theses/codel/2_switch/4_Priority_Repeater/codel.p4",
            "line" : 176,
            "column" : 10,
            "source_fragment" : "slice_priority"
          },
          "key" : [
            {
              "match_type" : "lpm",
              "name" : "hdr.ipv4.srcAddr",
              "target" : ["ipv4", "srcAddr"],
              "mask" : null
            }
          ],
          "match_type" : "lpm",
          "type" : "simple",
          "max_size" : 32,
          "with_counters" : false,
          "support_timeout" : false,
          "direct_meters" : null,
          "action_ids" : [3],
          "actions" : ["ingress.set_priority"],
          "base_default_next" : null,
          "next_tables" : {
            "ingress.set_priority" : null
          },
          "default_entry" : {
            "action_id" : 3,
            "action_const" : false,
            "action_data" : ["0x0"],
            "action_entry_const" : false
          }
        }
      ],
      "action_profiles" : [],
      "conditionals" : []
    },
    {
      "name" : "egress",
      "id" : 1,
      "source_info" : {
        "filename" : "/home/tobias/student_theses/codel/2_switch/4_Priority_Repeater/codel.p4",
        "line" : 292,
        "column" : 8,
        "source_fragment" : "egress"
      },
      "init_table" : "node_6",
      "tables" : [
        {
          "name" : "tbl_codel308",
          "id" : 2,
          "source_info" : {
            "filename" : "/home/tobias/student_theses/codel/2_switch/4_Priority_Repeater/codel.p4",
            "line" : 308,
            "column" : 4,
            "source_fragment" : "mark_to_drop(standard_metadata)"
          },
          "key" : [],
          "match_type" : "exact",
          "type" : "simple",
          "max_size" : 1024,
          "with_counters" : false,
          "support_timeout" : false,
          "direct_meters" : null,
          "action_ids" : [4],
          "actions" : ["codel308"],
          "base_default_next" : null,
          "next_tables" : {
            "codel308" : null
          },
          "default_entry" : {
            "action_id" : 4,
            "action_const" : true,
            "action_data" : [],
            "action_entry_const" : true
          }
        }
      ],
      "action_profiles" : [],
      "conditionals" : [
        {
          "name" : "node_6",
          "id" : 0,
          "source_info" : {
            "filename" : "/home/tobias/student_theses/codel/2_switch/4_Priority_Repeater/codel.p4",
            "line" : 306,
            "column" : 7,
            "source_fragment" : "standard_metadata.priority == 3w0"
          },
          "expression" : {
            "type" : "expression",
            "value" : {
              "op" : "==",
              "left" : {
                "type" : "field",
                "value" : ["standard_metadata", "priority"]
              },
              "right" : {
                "type" : "hexstr",
                "value" : "0x00"
              }
            }
          },
          "false_next" : null,
          "true_next" : "node_7"
        },
        {
          "name" : "node_7",
          "id" : 1,
          "source_info" : {
            "filename" : "/home/tobias/student_theses/codel/2_switch/4_Priority_Repeater/codel.p4",
            "line" : 307,
            "column" : 11,
            "source_fragment" : "standard_metadata.deq_timedelta > 32w1000"
          },
          "expression" : {
            "type" : "expression",
            "value" : {
              "op" : ">",
              "left" : {
                "type" : "field",
                "value" : ["standard_metadata", "deq_timedelta"]
              },
              "right" : {
                "type" : "hexstr",
                "value" : "0x000003e8"
              }
            }
          },
          "false_next" : null,
          "true_next" : "tbl_codel308"
        }
      ]
    }
  ],
  "checksums" : [
    {
      "name" : "cksum",
      "id" : 0,
      "source_info" : {
        "filename" : "/home/tobias/student_theses/codel/2_switch/4_Priority_Repeater/codel.p4",
        "line" : 317,
        "column" : 8,
        "source_fragment" : "update_checksum( ..."
      },
      "target" : ["ipv4", "hdrChecksum"],
      "type" : "generic",
      "calculation" : "calc",
      "verify" : false,
      "update" : true,
      "if_cond" : {
        "type" : "bool",
        "value" : true
      }
    }
  ],
  "force_arith" : [],
  "extern_instances" : [],
  "field_aliases" : [
    [
      "queueing_metadata.enq_timestamp",
      ["standard_metadata", "enq_timestamp"]
    ],
    [
      "queueing_metadata.enq_qdepth",
      ["standard_metadata", "enq_qdepth"]
    ],
    [
      "queueing_metadata.deq_timedelta",
      ["standard_metadata", "deq_timedelta"]
    ],
    [
      "queueing_metadata.deq_qdepth",
      ["standard_metadata", "deq_qdepth"]
    ],
    [
      "intrinsic_metadata.ingress_global_timestamp",
      ["standard_metadata", "ingress_global_timestamp"]
    ],
    [
      "intrinsic_metadata.egress_global_timestamp",
      ["standard_metadata", "egress_global_timestamp"]
    ],
    [
      "intrinsic_metadata.mcast_grp",
      ["standard_metadata", "mcast_grp"]
    ],
    [
      "intrinsic_metadata.egress_rid",
      ["standard_metadata", "egress_rid"]
    ],
    [
      "intrinsic_metadata.priority",
      ["standard_metadata", "priority"]
    ],
    [
      "queueing_metadata.qid",
      ["standard_metadata", "qid"]
    ]
  ],
  "program" : "/home/tobias/student_theses/codel/2_switch/4_Priority_Repeater/codel.p4i",
  "__meta__" : {
    "version" : [2, 23],
    "compiler" : "https://github.com/p4lang/p4c"
  }
}