{
  "header_types" : [
    {
      "name" : "scalars_0",
      "id" : 0,
      "fields" : [
        ["tmp", 32, false],
        ["tmp_0", 48, false],
        ["tmp_1", 32, false],
        ["tmp_2", 32, false],
        ["tmp_3", 32, false],
        ["tmp_4", 32, false],
        ["tmp_5", 32, false],
        ["tmp_6", 32, false],
        ["tmp_7", 32, false],
        ["tmp_8", 32, false],
        ["tmp_9", 32, false],
        ["tmp_10", 32, false],
        ["tmp_11", 32, false],
        ["tmp_12", 32, false],
        ["tmp_13", 32, false],
        ["userMetadata._codel_drop_time0", 48, false],
        ["userMetadata._codel_time_now1", 48, false],
        ["userMetadata._codel_ok_to_drop2", 1, false],
        ["userMetadata._codel_state_dropping3", 1, false],
        ["userMetadata._codel_delta4", 32, false],
        ["userMetadata._codel_time_since_last_dropping5", 48, false],
        ["userMetadata._codel_drop_next6", 48, false],
        ["userMetadata._codel_drop_cnt7", 32, false],
        ["userMetadata._codel_last_drop_cnt8", 32, false],
        ["userMetadata._codel_reset_drop_time9", 1, false],
        ["userMetadata._codel_new_drop_time10", 48, false],
        ["userMetadata._codel_new_drop_time_helper11", 48, false],
        ["userMetadata._codel_queue_id12", 9, false],
        ["_padding_0", 4, false]
      ]
    },
    {
      "name" : "standard_metadata",
      "id" : 1,
      "fields" : [
        ["ingress_port", 9, false],
        ["egress_spec", 9, false],
        ["egress_port", 9, false],
        ["instance_type", 32, false],
        ["packet_length", 32, false],
        ["enq_timestamp", 32, false],
        ["enq_qdepth", 19, false],
        ["deq_timedelta", 32, false],
        ["deq_qdepth", 19, false],
        ["ingress_global_timestamp", 48, false],
        ["egress_global_timestamp", 48, false],
        ["mcast_grp", 16, false],
        ["egress_rid", 16, false],
        ["checksum_error", 1, false],
        ["parser_error", 32, false],
        ["priority", 3, false],
        ["qid", 5, false],
        ["_padding", 6, false]
      ]
    },
    {
      "name" : "ethernet_t",
      "id" : 2,
      "fields" : [
        ["dst_addr", 48, false],
        ["src_addr", 48, false],
        ["ethertype", 16, false]
      ]
    },
    {
      "name" : "ipv4_t",
      "id" : 3,
      "fields" : [
        ["version", 4, false],
        ["ihl", 4, false],
        ["diffserv", 8, false],
        ["totalLen", 16, false],
        ["identification", 16, false],
        ["flags", 3, false],
        ["fragOffset", 13, false],
        ["ttl", 8, false],
        ["protocol", 8, false],
        ["hdrChecksum", 16, false],
        ["srcAddr", 32, false],
        ["dstAddr", 32, false]
      ]
    },
    {
      "name" : "tcp_t",
      "id" : 4,
      "fields" : [
        ["srcPort", 16, false],
        ["dstPort", 16, false],
        ["seqNo", 32, false],
        ["ackNo", 32, false],
        ["dataOffset", 4, false],
        ["res", 4, false],
        ["flags", 8, false],
        ["window", 16, false],
        ["checksum", 16, false],
        ["urgentPtr", 16, false]
      ]
    },
    {
      "name" : "udp_t",
      "id" : 5,
      "fields" : [
        ["sourcePort", 16, false],
        ["destPort", 16, false],
        ["length_", 16, false],
        ["checksum", 16, false]
      ]
    }
  ],
  "headers" : [
    {
      "name" : "scalars",
      "id" : 0,
      "header_type" : "scalars_0",
      "metadata" : true,
      "pi_omit" : true
    },
    {
      "name" : "standard_metadata",
      "id" : 1,
      "header_type" : "standard_metadata",
      "metadata" : true,
      "pi_omit" : true
    },
    {
      "name" : "ethernet",
      "id" : 2,
      "header_type" : "ethernet_t",
      "metadata" : false,
      "pi_omit" : true
    },
    {
      "name" : "ipv4",
      "id" : 3,
      "header_type" : "ipv4_t",
      "metadata" : false,
      "pi_omit" : true
    },
    {
      "name" : "tcp",
      "id" : 4,
      "header_type" : "tcp_t",
      "metadata" : false,
      "pi_omit" : true
    },
    {
      "name" : "udp",
      "id" : 5,
      "header_type" : "udp_t",
      "metadata" : false,
      "pi_omit" : true
    }
  ],
  "header_stacks" : [],
  "header_union_types" : [],
  "header_unions" : [],
  "header_union_stacks" : [],
  "field_lists" : [],
  "errors" : [
    ["NoError", 0],
    ["PacketTooShort", 1],
    ["NoMatch", 2],
    ["StackOutOfBounds", 3],
    ["HeaderTooShort", 4],
    ["ParserTimeout", 5],
    ["ParserInvalidArgument", 6]
  ],
  "enums" : [],
  "parsers" : [
    {
      "name" : "parser",
      "id" : 0,
      "init_state" : "start",
      "parse_states" : [
        {
          "name" : "start",
          "id" : 0,
          "parser_ops" : [
            {
              "parameters" : [
                {
                  "type" : "regular",
                  "value" : "ethernet"
                }
              ],
              "op" : "extract"
            }
          ],
          "transitions" : [
            {
              "type" : "hexstr",
              "value" : "0x0800",
              "mask" : null,
              "next_state" : "parse_ipv4"
            },
            {
              "type" : "default",
              "value" : null,
              "mask" : null,
              "next_state" : null
            }
          ],
          "transition_key" : [
            {
              "type" : "field",
              "value" : ["ethernet", "ethertype"]
            }
          ]
        },
        {
          "name" : "parse_ipv4",
          "id" : 1,
          "parser_ops" : [
            {
              "parameters" : [
                {
                  "type" : "regular",
                  "value" : "ipv4"
                }
              ],
              "op" : "extract"
            }
          ],
          "transitions" : [
            {
              "type" : "hexstr",
              "value" : "0x11",
              "mask" : null,
              "next_state" : "parse_udp"
            },
            {
              "type" : "hexstr",
              "value" : "0x06",
              "mask" : null,
              "next_state" : "parse_tcp"
            },
            {
              "type" : "default",
              "value" : null,
              "mask" : null,
              "next_state" : null
            }
          ],
          "transition_key" : [
            {
              "type" : "field",
              "value" : ["ipv4", "protocol"]
            }
          ]
        },
        {
          "name" : "parse_tcp",
          "id" : 2,
          "parser_ops" : [
            {
              "parameters" : [
                {
                  "type" : "regular",
                  "value" : "tcp"
                }
              ],
              "op" : "extract"
            }
          ],
          "transitions" : [
            {
              "type" : "default",
              "value" : null,
              "mask" : null,
              "next_state" : null
            }
          ],
          "transition_key" : []
        },
        {
          "name" : "parse_udp",
          "id" : 3,
          "parser_ops" : [
            {
              "parameters" : [
                {
                  "type" : "regular",
                  "value" : "udp"
                }
              ],
              "op" : "extract"
            }
          ],
          "transitions" : [
            {
              "type" : "default",
              "value" : null,
              "mask" : null,
              "next_state" : null
            }
          ],
          "transition_key" : []
        }
      ]
    }
  ],
  "parse_vsets" : [],
  "deparsers" : [
    {
      "name" : "deparser",
      "id" : 0,
      "source_info" : {
        "filename" : "/home/tobias/student_theses/codel/2_switch/4_Priority_Repeater/codel_1.p4",
        "line" : 342,
        "column" : 8,
        "source_fragment" : "DeparserImpl"
      },
      "order" : ["ethernet", "ipv4", "tcp", "udp"],
      "primitives" : []
    }
  ],
  "meter_arrays" : [],
  "counter_arrays" : [],
  "register_arrays" : [
    {
      "name" : "r_drop_count",
      "id" : 0,
      "source_info" : {
        "filename" : "/home/tobias/student_theses/codel/2_switch/4_Priority_Repeater/codel_1.p4",
        "line" : 26,
        "column" : 25,
        "source_fragment" : "r_drop_count"
      },
      "size" : 64,
      "bitwidth" : 32
    },
    {
      "name" : "r_drop_time",
      "id" : 1,
      "source_info" : {
        "filename" : "/home/tobias/student_theses/codel/2_switch/4_Priority_Repeater/codel_1.p4",
        "line" : 27,
        "column" : 25,
        "source_fragment" : "r_drop_time"
      },
      "size" : 64,
      "bitwidth" : 48
    },
    {
      "name" : "r_last_drop_count",
      "id" : 2,
      "source_info" : {
        "filename" : "/home/tobias/student_theses/codel/2_switch/4_Priority_Repeater/codel_1.p4",
        "line" : 28,
        "column" : 25,
        "source_fragment" : "r_last_drop_count"
      },
      "size" : 64,
      "bitwidth" : 32
    },
    {
      "name" : "r_next_drop",
      "id" : 3,
      "source_info" : {
        "filename" : "/home/tobias/student_theses/codel/2_switch/4_Priority_Repeater/codel_1.p4",
        "line" : 29,
        "column" : 25,
        "source_fragment" : "r_next_drop"
      },
      "size" : 64,
      "bitwidth" : 48
    },
    {
      "name" : "r_state_dropping",
      "id" : 4,
      "source_info" : {
        "filename" : "/home/tobias/student_theses/codel/2_switch/4_Priority_Repeater/codel_1.p4",
        "line" : 30,
        "column" : 24,
        "source_fragment" : "r_state_dropping"
      },
      "size" : 64,
      "bitwidth" : 1
    }
  ],
  "calculations" : [
    {
      "name" : "calc",
      "id" : 0,
      "source_info" : {
        "filename" : "/home/tobias/student_theses/codel/2_switch/4_Priority_Repeater/codel_1.p4",
        "line" : 320,
        "column" : 8,
        "source_fragment" : "update_checksum( ..."
      },
      "algo" : "csum16",
      "input" : [
        {
          "type" : "field",
          "value" : ["ipv4", "version"]
        },
        {
          "type" : "field",
          "value" : ["ipv4", "ihl"]
        },
        {
          "type" : "field",
          "value" : ["ipv4", "diffserv"]
        },
        {
          "type" : "field",
          "value" : ["ipv4", "totalLen"]
        },
        {
          "type" : "field",
          "value" : ["ipv4", "identification"]
        },
        {
          "type" : "field",
          "value" : ["ipv4", "flags"]
        },
        {
          "type" : "field",
          "value" : ["ipv4", "fragOffset"]
        },
        {
          "type" : "field",
          "value" : ["ipv4", "ttl"]
        },
        {
          "type" : "field",
          "value" : ["ipv4", "protocol"]
        },
        {
          "type" : "field",
          "value" : ["ipv4", "srcAddr"]
        },
        {
          "type" : "field",
          "value" : ["ipv4", "dstAddr"]
        }
      ]
    }
  ],
  "learn_lists" : [],
  "actions" : [
    {
      "name" : "NoAction",
      "id" : 0,
      "runtime_data" : [],
      "primitives" : []
    },
    {
      "name" : "ingress.drop",
      "id" : 1,
      "runtime_data" : [],
      "primitives" : [
        {
          "op" : "mark_to_drop",
          "parameters" : [
            {
              "type" : "header",
              "value" : "standard_metadata"
            }
          ],
          "source_info" : {
            "filename" : "/home/tobias/student_theses/codel/2_switch/4_Priority_Repeater/codel_1.p4",
            "line" : 145,
            "column" : 8,
            "source_fragment" : "mark_to_drop(standard_metadata)"
          }
        }
      ]
    },
    {
      "name" : "ingress.forward_slicing",
      "id" : 2,
      "runtime_data" : [
        {
          "name" : "egress_spec",
          "bitwidth" : 9
        },
        {
          "name" : "dst_mac",
          "bitwidth" : 48
        }
      ],
      "primitives" : [
        {
          "op" : "assign",
          "parameters" : [
            {
              "type" : "field",
              "value" : ["standard_metadata", "egress_spec"]
            },
            {
              "type" : "runtime_data",
              "value" : 0
            }
          ],
          "source_info" : {
            "filename" : "/home/tobias/student_theses/codel/2_switch/4_Priority_Repeater/codel_1.p4",
            "line" : 149,
            "column" : 8,
            "source_fragment" : "standard_metadata.egress_spec = egress_spec"
          }
        },
        {
          "op" : "assign",
          "parameters" : [
            {
              "type" : "field",
              "value" : ["standard_metadata", "egress_port"]
            },
            {
              "type" : "runtime_data",
              "value" : 0
            }
          ],
          "source_info" : {
            "filename" : "/home/tobias/student_theses/codel/2_switch/4_Priority_Repeater/codel_1.p4",
            "line" : 150,
            "column" : 8,
            "source_fragment" : "standard_metadata.egress_port = egress_spec"
          }
        },
        {
          "op" : "assign",
          "parameters" : [
            {
              "type" : "field",
              "value" : ["ethernet", "dst_addr"]
            },
            {
              "type" : "runtime_data",
              "value" : 1
            }
          ],
          "source_info" : {
            "filename" : "/home/tobias/student_theses/codel/2_switch/4_Priority_Repeater/codel_1.p4",
            "line" : 151,
            "column" : 8,
            "source_fragment" : "hdr.ethernet.dst_addr = dst_mac"
          }
        },
        {
          "op" : "assign",
          "parameters" : [
            {
              "type" : "field",
              "value" : ["ipv4", "ttl"]
            },
            {
              "type" : "expression",
              "value" : {
                "type" : "expression",
                "value" : {
                  "op" : "&",
                  "left" : {
                    "type" : "expression",
                    "value" : {
                      "op" : "+",
                      "left" : {
                        "type" : "field",
                        "value" : ["ipv4", "ttl"]
                      },
                      "right" : {
                        "type" : "hexstr",
                        "value" : "0xff"
                      }
                    }
                  },
                  "right" : {
                    "type" : "hexstr",
                    "value" : "0xff"
                  }
                }
              }
            }
          ],
          "source_info" : {
            "filename" : "/home/tobias/student_theses/codel/2_switch/4_Priority_Repeater/codel_1.p4",
            "line" : 152,
            "column" : 8,
            "source_fragment" : "hdr.ipv4.ttl = hdr.ipv4.ttl -1"
          }
        }
      ]
    },
    {
      "name" : "ingress.set_priority",
      "id" : 3,
      "runtime_data" : [
        {
          "name" : "value",
          "bitwidth" : 7
        }
      ],
      "primitives" : [
        {
          "op" : "assign",
          "parameters" : [
            {
              "type" : "field",
              "value" : ["standard_metadata", "priority"]
            },
            {
              "type" : "expression",
              "value" : {
                "type" : "expression",
                "value" : {
                  "op" : "&",
                  "left" : {
                    "type" : "expression",
                    "value" : {
                      "op" : "&",
                      "left" : {
                        "type" : "local",
                        "value" : 0
                      },
                      "right" : {
                        "type" : "hexstr",
                        "value" : "0x07"
                      }
                    }
                  },
                  "right" : {
                    "type" : "hexstr",
                    "value" : "0x07"
                  }
                }
              }
            }
          ],
          "source_info" : {
            "filename" : "/home/tobias/student_theses/codel/2_switch/4_Priority_Repeater/codel_1.p4",
            "line" : 171,
            "column" : 8,
            "source_fragment" : "standard_metadata.priority = (bit<3>)value"
          }
        }
      ]
    },
    {
      "name" : "NoAction",
      "id" : 4,
      "runtime_data" : [],
      "primitives" : []
    },
    {
      "name" : "egress.c_codel_0.a_codel_control_law",
      "id" : 5,
      "runtime_data" : [
        {
          "name" : "value",
          "bitwidth" : 48
        }
      ],
      "primitives" : [
        {
          "op" : "assign",
          "parameters" : [
            {
              "type" : "field",
              "value" : ["scalars", "userMetadata._codel_drop_next6"]
            },
            {
              "type" : "expression",
              "value" : {
                "type" : "expression",
                "value" : {
                  "op" : "&",
                  "left" : {
                    "type" : "expression",
                    "value" : {
                      "op" : "+",
                      "left" : {
                        "type" : "field",
                        "value" : ["scalars", "userMetadata._codel_time_now1"]
                      },
                      "right" : {
                        "type" : "local",
                        "value" : 0
                      }
                    }
                  },
                  "right" : {
                    "type" : "hexstr",
                    "value" : "0xffffffffffff"
                  }
                }
              }
            }
          ],
          "source_info" : {
            "filename" : "/home/tobias/student_theses/codel/2_switch/4_Priority_Repeater/codel_1.p4",
            "line" : 201,
            "column" : 29,
            "source_fragment" : "= meta.codel.time_now + value; ..."
          }
        },
        {
          "op" : "assign",
          "parameters" : [
            {
              "type" : "field",
              "value" : ["scalars", "tmp"]
            },
            {
              "type" : "expression",
              "value" : {
                "type" : "expression",
                "value" : {
                  "op" : "&",
                  "left" : {
                    "type" : "field",
                    "value" : ["scalars", "userMetadata._codel_queue_id12"]
                  },
                  "right" : {
                    "type" : "hexstr",
                    "value" : "0xffffffff"
                  }
                }
              }
            }
          ],
          "source_info" : {
            "filename" : "/home/tobias/student_theses/codel/2_switch/4_Priority_Repeater/codel_1.p4",
            "line" : 202,
            "column" : 26,
            "source_fragment" : "(bit<32>)meta.codel.queue_id"
          }
        },
        {
          "op" : "assign",
          "parameters" : [
            {
              "type" : "field",
              "value" : ["scalars", "tmp_0"]
            },
            {
              "type" : "expression",
              "value" : {
                "type" : "expression",
                "value" : {
                  "op" : "&",
                  "left" : {
                    "type" : "expression",
                    "value" : {
                      "op" : "+",
                      "left" : {
                        "type" : "field",
                        "value" : ["scalars", "userMetadata._codel_time_now1"]
                      },
                      "right" : {
                        "type" : "local",
                        "value" : 0
                      }
                    }
                  },
                  "right" : {
                    "type" : "hexstr",
                    "value" : "0xffffffffffff"
                  }
                }
              }
            }
          ],
          "source_info" : {
            "filename" : "/home/tobias/student_theses/codel/2_switch/4_Priority_Repeater/codel_1.p4",
            "line" : 308,
            "column" : 29,
            "source_fragment" : "meta"
          }
        },
        {
          "op" : "register_write",
          "parameters" : [
            {
              "type" : "register_array",
              "value" : "r_next_drop"
            },
            {
              "type" : "field",
              "value" : ["scalars", "tmp"]
            },
            {
              "type" : "field",
              "value" : ["scalars", "tmp_0"]
            }
          ],
          "source_info" : {
            "filename" : "/home/tobias/student_theses/codel/2_switch/4_Priority_Repeater/codel_1.p4",
            "line" : 202,
            "column" : 8,
            "source_fragment" : "r_next_drop.write((bit<32>)meta.codel.queue_id, (bit<48>)meta.codel.drop_next)"
          }
        }
      ]
    },
    {
      "name" : "egress.c_codel_0.a_codel_init",
      "id" : 6,
      "runtime_data" : [],
      "primitives" : [
        {
          "op" : "assign",
          "parameters" : [
            {
              "type" : "field",
              "value" : ["scalars", "userMetadata._codel_ok_to_drop2"]
            },
            {
              "type" : "hexstr",
              "value" : "0x00"
            }
          ],
          "source_info" : {
            "filename" : "/home/tobias/student_theses/codel/2_switch/4_Priority_Repeater/codel_1.p4",
            "line" : 206,
            "column" : 30,
            "source_fragment" : "= 1w0; ..."
          }
        },
        {
          "op" : "assign",
          "parameters" : [
            {
              "type" : "field",
              "value" : ["scalars", "userMetadata._codel_time_now1"]
            },
            {
              "type" : "expression",
              "value" : {
                "type" : "expression",
                "value" : {
                  "op" : "&",
                  "left" : {
                    "type" : "expression",
                    "value" : {
                      "op" : "+",
                      "left" : {
                        "type" : "expression",
                        "value" : {
                          "op" : "&",
                          "left" : {
                            "type" : "field",
                            "value" : ["standard_metadata", "enq_timestamp"]
                          },
                          "right" : {
                            "type" : "hexstr",
                            "value" : "0xffffffffffff"
                          }
                        }
                      },
                      "right" : {
                        "type" : "expression",
                        "value" : {
                          "op" : "&",
                          "left" : {
                            "type" : "field",
                            "value" : ["standard_metadata", "deq_timedelta"]
                          },
                          "right" : {
                            "type" : "hexstr",
                            "value" : "0xffffffffffff"
                          }
                        }
                      }
                    }
                  },
                  "right" : {
                    "type" : "hexstr",
                    "value" : "0xffffffffffff"
                  }
                }
              }
            }
          ],
          "source_info" : {
            "filename" : "/home/tobias/student_theses/codel/2_switch/4_Priority_Repeater/codel_1.p4",
            "line" : 207,
            "column" : 28,
            "source_fragment" : "= (bit<48>)standard_metadata.enq_timestamp + (bit<48>)standard_metadata.deq_timedelta; ..."
          }
        },
        {
          "op" : "assign",
          "parameters" : [
            {
              "type" : "field",
              "value" : ["scalars", "userMetadata._codel_new_drop_time10"]
            },
            {
              "type" : "expression",
              "value" : {
                "type" : "expression",
                "value" : {
                  "op" : "&",
                  "left" : {
                    "type" : "expression",
                    "value" : {
                      "op" : "+",
                      "left" : {
                        "type" : "expression",
                        "value" : {
                          "op" : "&",
                          "left" : {
                            "type" : "expression",
                            "value" : {
                              "op" : "+",
                              "left" : {
                                "type" : "expression",
                                "value" : {
                                  "op" : "&",
                                  "left" : {
                                    "type" : "field",
                                    "value" : ["standard_metadata", "enq_timestamp"]
                                  },
                                  "right" : {
                                    "type" : "hexstr",
                                    "value" : "0xffffffffffff"
                                  }
                                }
                              },
                              "right" : {
                                "type" : "expression",
                                "value" : {
                                  "op" : "&",
                                  "left" : {
                                    "type" : "field",
                                    "value" : ["standard_metadata", "deq_timedelta"]
                                  },
                                  "right" : {
                                    "type" : "hexstr",
                                    "value" : "0xffffffffffff"
                                  }
                                }
                              }
                            }
                          },
                          "right" : {
                            "type" : "hexstr",
                            "value" : "0xffffffffffff"
                          }
                        }
                      },
                      "right" : {
                        "type" : "hexstr",
                        "value" : "0x0000000003e8"
                      }
                    }
                  },
                  "right" : {
                    "type" : "hexstr",
                    "value" : "0xffffffffffff"
                  }
                }
              }
            }
          ],
          "source_info" : {
            "filename" : "/home/tobias/student_theses/codel/2_switch/4_Priority_Repeater/codel_1.p4",
            "line" : 208,
            "column" : 33,
            "source_fragment" : "= meta.codel.time_now + 48w1000; ..."
          }
        },
        {
          "op" : "assign",
          "parameters" : [
            {
              "type" : "field",
              "value" : ["scalars", "tmp_1"]
            },
            {
              "type" : "expression",
              "value" : {
                "type" : "expression",
                "value" : {
                  "op" : "&",
                  "left" : {
                    "type" : "field",
                    "value" : ["scalars", "userMetadata._codel_queue_id12"]
                  },
                  "right" : {
                    "type" : "hexstr",
                    "value" : "0xffffffff"
                  }
                }
              }
            }
          ],
          "source_info" : {
            "filename" : "/home/tobias/student_theses/codel/2_switch/4_Priority_Repeater/codel_1.p4",
            "line" : 209,
            "column" : 57,
            "source_fragment" : "(bit<32>)meta.codel.queue_id"
          }
        },
        {
          "op" : "register_read",
          "parameters" : [
            {
              "type" : "field",
              "value" : ["scalars", "userMetadata._codel_state_dropping3"]
            },
            {
              "type" : "register_array",
              "value" : "r_state_dropping"
            },
            {
              "type" : "field",
              "value" : ["scalars", "tmp_1"]
            }
          ],
          "source_info" : {
            "filename" : "/home/tobias/student_theses/codel/2_switch/4_Priority_Repeater/codel_1.p4",
            "line" : 209,
            "column" : 8,
            "source_fragment" : "r_state_dropping.read(meta.codel.state_dropping, (bit<32>)meta.codel.queue_id)"
          }
        },
        {
          "op" : "assign",
          "parameters" : [
            {
              "type" : "field",
              "value" : ["scalars", "tmp_2"]
            },
            {
              "type" : "expression",
              "value" : {
                "type" : "expression",
                "value" : {
                  "op" : "&",
                  "left" : {
                    "type" : "field",
                    "value" : ["scalars", "userMetadata._codel_queue_id12"]
                  },
                  "right" : {
                    "type" : "hexstr",
                    "value" : "0xffffffff"
                  }
                }
              }
            }
          ],
          "source_info" : {
            "filename" : "/home/tobias/student_theses/codel/2_switch/4_Priority_Repeater/codel_1.p4",
            "line" : 210,
            "column" : 47,
            "source_fragment" : "(bit<32>)meta.codel.queue_id"
          }
        },
        {
          "op" : "register_read",
          "parameters" : [
            {
              "type" : "field",
              "value" : ["scalars", "userMetadata._codel_drop_cnt7"]
            },
            {
              "type" : "register_array",
              "value" : "r_drop_count"
            },
            {
              "type" : "field",
              "value" : ["scalars", "tmp_2"]
            }
          ],
          "source_info" : {
            "filename" : "/home/tobias/student_theses/codel/2_switch/4_Priority_Repeater/codel_1.p4",
            "line" : 210,
            "column" : 8,
            "source_fragment" : "r_drop_count.read(meta.codel.drop_cnt, (bit<32>)meta.codel.queue_id)"
          }
        },
        {
          "op" : "assign",
          "parameters" : [
            {
              "type" : "field",
              "value" : ["scalars", "tmp_3"]
            },
            {
              "type" : "expression",
              "value" : {
                "type" : "expression",
                "value" : {
                  "op" : "&",
                  "left" : {
                    "type" : "field",
                    "value" : ["scalars", "userMetadata._codel_queue_id12"]
                  },
                  "right" : {
                    "type" : "hexstr",
                    "value" : "0xffffffff"
                  }
                }
              }
            }
          ],
          "source_info" : {
            "filename" : "/home/tobias/student_theses/codel/2_switch/4_Priority_Repeater/codel_1.p4",
            "line" : 211,
            "column" : 57,
            "source_fragment" : "(bit<32>)meta.codel.queue_id"
          }
        },
        {
          "op" : "register_read",
          "parameters" : [
            {
              "type" : "field",
              "value" : ["scalars", "userMetadata._codel_last_drop_cnt8"]
            },
            {
              "type" : "register_array",
              "value" : "r_last_drop_count"
            },
            {
              "type" : "field",
              "value" : ["scalars", "tmp_3"]
            }
          ],
          "source_info" : {
            "filename" : "/home/tobias/student_theses/codel/2_switch/4_Priority_Repeater/codel_1.p4",
            "line" : 211,
            "column" : 8,
            "source_fragment" : "r_last_drop_count.read(meta.codel.last_drop_cnt, (bit<32>)meta.codel.queue_id)"
          }
        },
        {
          "op" : "assign",
          "parameters" : [
            {
              "type" : "field",
              "value" : ["scalars", "tmp_4"]
            },
            {
              "type" : "expression",
              "value" : {
                "type" : "expression",
                "value" : {
                  "op" : "&",
                  "left" : {
                    "type" : "field",
                    "value" : ["scalars", "userMetadata._codel_queue_id12"]
                  },
                  "right" : {
                    "type" : "hexstr",
                    "value" : "0xffffffff"
                  }
                }
              }
            }
          ],
          "source_info" : {
            "filename" : "/home/tobias/student_theses/codel/2_switch/4_Priority_Repeater/codel_1.p4",
            "line" : 212,
            "column" : 47,
            "source_fragment" : "(bit<32>)meta.codel.queue_id"
          }
        },
        {
          "op" : "register_read",
          "parameters" : [
            {
              "type" : "field",
              "value" : ["scalars", "userMetadata._codel_drop_next6"]
            },
            {
              "type" : "register_array",
              "value" : "r_next_drop"
            },
            {
              "type" : "field",
              "value" : ["scalars", "tmp_4"]
            }
          ],
          "source_info" : {
            "filename" : "/home/tobias/student_theses/codel/2_switch/4_Priority_Repeater/codel_1.p4",
            "line" : 212,
            "column" : 8,
            "source_fragment" : "r_next_drop.read(meta.codel.drop_next, (bit<32>)meta.codel.queue_id)"
          }
        },
        {
          "op" : "assign",
          "parameters" : [
            {
              "type" : "field",
              "value" : ["scalars", "tmp_5"]
            },
            {
              "type" : "expression",
              "value" : {
                "type" : "expression",
                "value" : {
                  "op" : "&",
                  "left" : {
                    "type" : "field",
                    "value" : ["scalars", "userMetadata._codel_queue_id12"]
                  },
                  "right" : {
                    "type" : "hexstr",
                    "value" : "0xffffffff"
                  }
                }
              }
            }
          ],
          "source_info" : {
            "filename" : "/home/tobias/student_theses/codel/2_switch/4_Priority_Repeater/codel_1.p4",
            "line" : 213,
            "column" : 47,
            "source_fragment" : "(bit<32>)meta.codel.queue_id"
          }
        },
        {
          "op" : "register_read",
          "parameters" : [
            {
              "type" : "field",
              "value" : ["scalars", "userMetadata._codel_drop_time0"]
            },
            {
              "type" : "register_array",
              "value" : "r_drop_time"
            },
            {
              "type" : "field",
              "value" : ["scalars", "tmp_5"]
            }
          ],
          "source_info" : {
            "filename" : "/home/tobias/student_theses/codel/2_switch/4_Priority_Repeater/codel_1.p4",
            "line" : 213,
            "column" : 8,
            "source_fragment" : "r_drop_time.read(meta.codel.drop_time, (bit<32>)meta.codel.queue_id)"
          }
        }
      ]
    },
    {
      "name" : "egress.c_codel_0.a_go_to_drop_state",
      "id" : 7,
      "runtime_data" : [],
      "primitives" : [
        {
          "op" : "mark_to_drop",
          "parameters" : [
            {
              "type" : "header",
              "value" : "standard_metadata"
            }
          ],
          "source_info" : {
            "filename" : "/home/tobias/student_theses/codel/2_switch/4_Priority_Repeater/codel_1.p4",
            "line" : 217,
            "column" : 1,
            "source_fragment" : "mark_to_drop(standard_metadata)"
          }
        },
        {
          "op" : "assign",
          "parameters" : [
            {
              "type" : "field",
              "value" : ["scalars", "tmp_6"]
            },
            {
              "type" : "expression",
              "value" : {
                "type" : "expression",
                "value" : {
                  "op" : "&",
                  "left" : {
                    "type" : "field",
                    "value" : ["scalars", "userMetadata._codel_queue_id12"]
                  },
                  "right" : {
                    "type" : "hexstr",
                    "value" : "0xffffffff"
                  }
                }
              }
            }
          ],
          "source_info" : {
            "filename" : "/home/tobias/student_theses/codel/2_switch/4_Priority_Repeater/codel_1.p4",
            "line" : 218,
            "column" : 31,
            "source_fragment" : "(bit<32>)meta.codel.queue_id"
          }
        },
        {
          "op" : "register_write",
          "parameters" : [
            {
              "type" : "register_array",
              "value" : "r_state_dropping"
            },
            {
              "type" : "field",
              "value" : ["scalars", "tmp_6"]
            },
            {
              "type" : "hexstr",
              "value" : "0x01"
            }
          ],
          "source_info" : {
            "filename" : "/home/tobias/student_theses/codel/2_switch/4_Priority_Repeater/codel_1.p4",
            "line" : 218,
            "column" : 8,
            "source_fragment" : "r_state_dropping.write((bit<32>)meta.codel.queue_id, (bit<1>)1)"
          }
        },
        {
          "op" : "assign",
          "parameters" : [
            {
              "type" : "field",
              "value" : ["scalars", "userMetadata._codel_delta4"]
            },
            {
              "type" : "expression",
              "value" : {
                "type" : "expression",
                "value" : {
                  "op" : "&",
                  "left" : {
                    "type" : "expression",
                    "value" : {
                      "op" : "-",
                      "left" : {
                        "type" : "field",
                        "value" : ["scalars", "userMetadata._codel_drop_cnt7"]
                      },
                      "right" : {
                        "type" : "field",
                        "value" : ["scalars", "userMetadata._codel_last_drop_cnt8"]
                      }
                    }
                  },
                  "right" : {
                    "type" : "hexstr",
                    "value" : "0xffffffff"
                  }
                }
              }
            }
          ],
          "source_info" : {
            "filename" : "/home/tobias/student_theses/codel/2_switch/4_Priority_Repeater/codel_1.p4",
            "line" : 219,
            "column" : 25,
            "source_fragment" : "= meta.codel.drop_cnt - meta.codel.last_drop_cnt; ..."
          }
        },
        {
          "op" : "assign",
          "parameters" : [
            {
              "type" : "field",
              "value" : ["scalars", "userMetadata._codel_time_since_last_dropping5"]
            },
            {
              "type" : "expression",
              "value" : {
                "type" : "expression",
                "value" : {
                  "op" : "&",
                  "left" : {
                    "type" : "expression",
                    "value" : {
                      "op" : "-",
                      "left" : {
                        "type" : "field",
                        "value" : ["scalars", "userMetadata._codel_time_now1"]
                      },
                      "right" : {
                        "type" : "field",
                        "value" : ["scalars", "userMetadata._codel_drop_next6"]
                      }
                    }
                  },
                  "right" : {
                    "type" : "hexstr",
                    "value" : "0xffffffffffff"
                  }
                }
              }
            }
          ],
          "source_info" : {
            "filename" : "/home/tobias/student_theses/codel/2_switch/4_Priority_Repeater/codel_1.p4",
            "line" : 220,
            "column" : 44,
            "source_fragment" : "= meta.codel.time_now - meta.codel.drop_next; ..."
          }
        },
        {
          "op" : "assign",
          "parameters" : [
            {
              "type" : "field",
              "value" : ["scalars", "userMetadata._codel_drop_cnt7"]
            },
            {
              "type" : "hexstr",
              "value" : "0x00000001"
            }
          ],
          "source_info" : {
            "filename" : "/home/tobias/student_theses/codel/2_switch/4_Priority_Repeater/codel_1.p4",
            "line" : 221,
            "column" : 28,
            "source_fragment" : "= 32w1; ..."
          }
        },
        {
          "op" : "assign",
          "parameters" : [
            {
              "type" : "field",
              "value" : ["scalars", "tmp_7"]
            },
            {
              "type" : "expression",
              "value" : {
                "type" : "expression",
                "value" : {
                  "op" : "&",
                  "left" : {
                    "type" : "field",
                    "value" : ["scalars", "userMetadata._codel_queue_id12"]
                  },
                  "right" : {
                    "type" : "hexstr",
                    "value" : "0xffffffff"
                  }
                }
              }
            }
          ],
          "source_info" : {
            "filename" : "/home/tobias/student_theses/codel/2_switch/4_Priority_Repeater/codel_1.p4",
            "line" : 222,
            "column" : 27,
            "source_fragment" : "(bit<32>)meta.codel.queue_id"
          }
        },
        {
          "op" : "register_write",
          "parameters" : [
            {
              "type" : "register_array",
              "value" : "r_drop_count"
            },
            {
              "type" : "field",
              "value" : ["scalars", "tmp_7"]
            },
            {
              "type" : "hexstr",
              "value" : "0x00000001"
            }
          ],
          "source_info" : {
            "filename" : "/home/tobias/student_theses/codel/2_switch/4_Priority_Repeater/codel_1.p4",
            "line" : 222,
            "column" : 8,
            "source_fragment" : "r_drop_count.write((bit<32>)meta.codel.queue_id, (bit<32>)1)"
          }
        }
      ]
    },
    {
      "name" : "codel_1l307",
      "id" : 8,
      "runtime_data" : [],
      "primitives" : [
        {
          "op" : "assign",
          "parameters" : [
            {
              "type" : "field",
              "value" : ["scalars", "userMetadata._codel_queue_id12"]
            },
            {
              "type" : "field",
              "value" : ["standard_metadata", "egress_port"]
            }
          ],
          "source_info" : {
            "filename" : "/home/tobias/student_theses/codel/2_switch/4_Priority_Repeater/codel_1.p4",
            "line" : 307,
            "column" : 4,
            "source_fragment" : "meta.codel.queue_id = standard_metadata.egress_port"
          }
        }
      ]
    },
    {
      "name" : "codel_1l239",
      "id" : 9,
      "runtime_data" : [],
      "primitives" : [
        {
          "op" : "assign",
          "parameters" : [
            {
              "type" : "field",
              "value" : ["scalars", "userMetadata._codel_reset_drop_time9"]
            },
            {
              "type" : "hexstr",
              "value" : "0x01"
            }
          ],
          "source_info" : {
            "filename" : "/home/tobias/student_theses/codel/2_switch/4_Priority_Repeater/codel_1.p4",
            "line" : 239,
            "column" : 32,
            "source_fragment" : "= 1w1; ..."
          }
        }
      ]
    },
    {
      "name" : "codel_1l244",
      "id" : 10,
      "runtime_data" : [],
      "primitives" : [
        {
          "op" : "assign",
          "parameters" : [
            {
              "type" : "field",
              "value" : ["scalars", "tmp_8"]
            },
            {
              "type" : "expression",
              "value" : {
                "type" : "expression",
                "value" : {
                  "op" : "&",
                  "left" : {
                    "type" : "field",
                    "value" : ["standard_metadata", "egress_port"]
                  },
                  "right" : {
                    "type" : "hexstr",
                    "value" : "0xffffffff"
                  }
                }
              }
            }
          ],
          "source_info" : {
            "filename" : "/home/tobias/student_theses/codel/2_switch/4_Priority_Repeater/codel_1.p4",
            "line" : 244,
            "column" : 30,
            "source_fragment" : "(bit<32>)meta.codel.queue_id"
          }
        },
        {
          "op" : "register_write",
          "parameters" : [
            {
              "type" : "register_array",
              "value" : "r_drop_time"
            },
            {
              "type" : "field",
              "value" : ["scalars", "tmp_8"]
            },
            {
              "type" : "hexstr",
              "value" : "0x000000000000"
            }
          ],
          "source_info" : {
            "filename" : "/home/tobias/student_theses/codel/2_switch/4_Priority_Repeater/codel_1.p4",
            "line" : 244,
            "column" : 12,
            "source_fragment" : "r_drop_time.write((bit<32>)meta.codel.queue_id, (bit<48>)0)"
          }
        },
        {
          "op" : "assign",
          "parameters" : [
            {
              "type" : "field",
              "value" : ["scalars", "userMetadata._codel_drop_time0"]
            },
            {
              "type" : "hexstr",
              "value" : "0x000000000000"
            }
          ],
          "source_info" : {
            "filename" : "/home/tobias/student_theses/codel/2_switch/4_Priority_Repeater/codel_1.p4",
            "line" : 245,
            "column" : 33,
            "source_fragment" : "= 48w0; ..."
          }
        }
      ]
    },
    {
      "name" : "codel_1l250",
      "id" : 11,
      "runtime_data" : [],
      "primitives" : [
        {
          "op" : "assign",
          "parameters" : [
            {
              "type" : "field",
              "value" : ["scalars", "tmp_9"]
            },
            {
              "type" : "expression",
              "value" : {
                "type" : "expression",
                "value" : {
                  "op" : "&",
                  "left" : {
                    "type" : "field",
                    "value" : ["standard_metadata", "egress_port"]
                  },
                  "right" : {
                    "type" : "hexstr",
                    "value" : "0xffffffff"
                  }
                }
              }
            }
          ],
          "source_info" : {
            "filename" : "/home/tobias/student_theses/codel/2_switch/4_Priority_Repeater/codel_1.p4",
            "line" : 250,
            "column" : 34,
            "source_fragment" : "(bit<32>)meta.codel.queue_id"
          }
        },
        {
          "op" : "register_write",
          "parameters" : [
            {
              "type" : "register_array",
              "value" : "r_drop_time"
            },
            {
              "type" : "field",
              "value" : ["scalars", "tmp_9"]
            },
            {
              "type" : "field",
              "value" : ["scalars", "userMetadata._codel_new_drop_time10"]
            }
          ],
          "source_info" : {
            "filename" : "/home/tobias/student_theses/codel/2_switch/4_Priority_Repeater/codel_1.p4",
            "line" : 250,
            "column" : 16,
            "source_fragment" : "r_drop_time.write((bit<32>)meta.codel.queue_id, (bit<48>)meta.codel.new_drop_time)"
          }
        },
        {
          "op" : "assign",
          "parameters" : [
            {
              "type" : "field",
              "value" : ["scalars", "userMetadata._codel_drop_time0"]
            },
            {
              "type" : "field",
              "value" : ["scalars", "userMetadata._codel_new_drop_time10"]
            }
          ],
          "source_info" : {
            "filename" : "/home/tobias/student_theses/codel/2_switch/4_Priority_Repeater/codel_1.p4",
            "line" : 251,
            "column" : 37,
            "source_fragment" : "= meta.codel.new_drop_time; ..."
          }
        }
      ]
    },
    {
      "name" : "codel_1l255",
      "id" : 12,
      "runtime_data" : [],
      "primitives" : [
        {
          "op" : "assign",
          "parameters" : [
            {
              "type" : "field",
              "value" : ["scalars", "userMetadata._codel_ok_to_drop2"]
            },
            {
              "type" : "hexstr",
              "value" : "0x01"
            }
          ],
          "source_info" : {
            "filename" : "/home/tobias/student_theses/codel/2_switch/4_Priority_Repeater/codel_1.p4",
            "line" : 255,
            "column" : 42,
            "source_fragment" : "= 1w1; ..."
          }
        }
      ]
    },
    {
      "name" : "codel_1l265",
      "id" : 13,
      "runtime_data" : [],
      "primitives" : [
        {
          "op" : "assign",
          "parameters" : [
            {
              "type" : "field",
              "value" : ["scalars", "tmp_10"]
            },
            {
              "type" : "expression",
              "value" : {
                "type" : "expression",
                "value" : {
                  "op" : "&",
                  "left" : {
                    "type" : "field",
                    "value" : ["standard_metadata", "egress_port"]
                  },
                  "right" : {
                    "type" : "hexstr",
                    "value" : "0xffffffff"
                  }
                }
              }
            }
          ],
          "source_info" : {
            "filename" : "/home/tobias/student_theses/codel/2_switch/4_Priority_Repeater/codel_1.p4",
            "line" : 265,
            "column" : 39,
            "source_fragment" : "(bit<32>)meta.codel.queue_id"
          }
        },
        {
          "op" : "register_write",
          "parameters" : [
            {
              "type" : "register_array",
              "value" : "r_state_dropping"
            },
            {
              "type" : "field",
              "value" : ["scalars", "tmp_10"]
            },
            {
              "type" : "hexstr",
              "value" : "0x00"
            }
          ],
          "source_info" : {
            "filename" : "/home/tobias/student_theses/codel/2_switch/4_Priority_Repeater/codel_1.p4",
            "line" : 265,
            "column" : 16,
            "source_fragment" : "r_state_dropping.write((bit<32>)meta.codel.queue_id, (bit<1>)0)"
          }
        }
      ]
    },
    {
      "name" : "codel_1l272",
      "id" : 14,
      "runtime_data" : [],
      "primitives" : [
        {
          "op" : "mark_to_drop",
          "parameters" : [
            {
              "type" : "header",
              "value" : "standard_metadata"
            }
          ],
          "source_info" : {
            "filename" : "/home/tobias/student_theses/codel/2_switch/4_Priority_Repeater/codel_1.p4",
            "line" : 272,
            "column" : 4,
            "source_fragment" : "mark_to_drop(standard_metadata)"
          }
        },
        {
          "op" : "assign",
          "parameters" : [
            {
              "type" : "field",
              "value" : ["scalars", "userMetadata._codel_drop_cnt7"]
            },
            {
              "type" : "expression",
              "value" : {
                "type" : "expression",
                "value" : {
                  "op" : "&",
                  "left" : {
                    "type" : "expression",
                    "value" : {
                      "op" : "+",
                      "left" : {
                        "type" : "field",
                        "value" : ["scalars", "userMetadata._codel_drop_cnt7"]
                      },
                      "right" : {
                        "type" : "hexstr",
                        "value" : "0x00000001"
                      }
                    }
                  },
                  "right" : {
                    "type" : "hexstr",
                    "value" : "0xffffffff"
                  }
                }
              }
            }
          ],
          "source_info" : {
            "filename" : "/home/tobias/student_theses/codel/2_switch/4_Priority_Repeater/codel_1.p4",
            "line" : 273,
            "column" : 24,
            "source_fragment" : "= meta.codel.drop_cnt + 32w1; ..."
          }
        },
        {
          "op" : "assign",
          "parameters" : [
            {
              "type" : "field",
              "value" : ["scalars", "tmp_11"]
            },
            {
              "type" : "expression",
              "value" : {
                "type" : "expression",
                "value" : {
                  "op" : "&",
                  "left" : {
                    "type" : "field",
                    "value" : ["scalars", "userMetadata._codel_queue_id12"]
                  },
                  "right" : {
                    "type" : "hexstr",
                    "value" : "0xffffffff"
                  }
                }
              }
            }
          ],
          "source_info" : {
            "filename" : "/home/tobias/student_theses/codel/2_switch/4_Priority_Repeater/codel_1.p4",
            "line" : 274,
            "column" : 43,
            "source_fragment" : "(bit<32>)meta.codel.queue_id"
          }
        },
        {
          "op" : "register_write",
          "parameters" : [
            {
              "type" : "register_array",
              "value" : "r_drop_count"
            },
            {
              "type" : "field",
              "value" : ["scalars", "tmp_11"]
            },
            {
              "type" : "field",
              "value" : ["scalars", "userMetadata._codel_drop_cnt7"]
            }
          ],
          "source_info" : {
            "filename" : "/home/tobias/student_theses/codel/2_switch/4_Priority_Repeater/codel_1.p4",
            "line" : 274,
            "column" : 24,
            "source_fragment" : "r_drop_count.write((bit<32>)meta.codel.queue_id, (bit<32>)meta.codel.drop_cnt)"
          }
        }
      ]
    },
    {
      "name" : "codel_1l286",
      "id" : 15,
      "runtime_data" : [],
      "primitives" : [
        {
          "op" : "assign",
          "parameters" : [
            {
              "type" : "field",
              "value" : ["scalars", "tmp_12"]
            },
            {
              "type" : "expression",
              "value" : {
                "type" : "expression",
                "value" : {
                  "op" : "&",
                  "left" : {
                    "type" : "field",
                    "value" : ["scalars", "userMetadata._codel_queue_id12"]
                  },
                  "right" : {
                    "type" : "hexstr",
                    "value" : "0xffffffff"
                  }
                }
              }
            }
          ],
          "source_info" : {
            "filename" : "/home/tobias/student_theses/codel/2_switch/4_Priority_Repeater/codel_1.p4",
            "line" : 286,
            "column" : 39,
            "source_fragment" : "(bit<32>)meta.codel.queue_id"
          }
        },
        {
          "op" : "register_write",
          "parameters" : [
            {
              "type" : "register_array",
              "value" : "r_drop_count"
            },
            {
              "type" : "field",
              "value" : ["scalars", "tmp_12"]
            },
            {
              "type" : "field",
              "value" : ["scalars", "userMetadata._codel_delta4"]
            }
          ],
          "source_info" : {
            "filename" : "/home/tobias/student_theses/codel/2_switch/4_Priority_Repeater/codel_1.p4",
            "line" : 286,
            "column" : 20,
            "source_fragment" : "r_drop_count.write((bit<32>)meta.codel.queue_id, (bit<32>)meta.codel.delta)"
          }
        },
        {
          "op" : "assign",
          "parameters" : [
            {
              "type" : "field",
              "value" : ["scalars", "userMetadata._codel_drop_cnt7"]
            },
            {
              "type" : "field",
              "value" : ["scalars", "userMetadata._codel_delta4"]
            }
          ],
          "source_info" : {
            "filename" : "/home/tobias/student_theses/codel/2_switch/4_Priority_Repeater/codel_1.p4",
            "line" : 287,
            "column" : 33,
            "source_fragment" : "= meta.codel.delta; ..."
          }
        }
      ]
    },
    {
      "name" : "codel_1l289",
      "id" : 16,
      "runtime_data" : [],
      "primitives" : [
        {
          "op" : "assign",
          "parameters" : [
            {
              "type" : "field",
              "value" : ["scalars", "tmp_13"]
            },
            {
              "type" : "expression",
              "value" : {
                "type" : "expression",
                "value" : {
                  "op" : "&",
                  "left" : {
                    "type" : "field",
                    "value" : ["scalars", "userMetadata._codel_queue_id12"]
                  },
                  "right" : {
                    "type" : "hexstr",
                    "value" : "0xffffffff"
                  }
                }
              }
            }
          ],
          "source_info" : {
            "filename" : "/home/tobias/student_theses/codel/2_switch/4_Priority_Repeater/codel_1.p4",
            "line" : 289,
            "column" : 40,
            "source_fragment" : "(bit<32>)meta.codel.queue_id"
          }
        },
        {
          "op" : "register_write",
          "parameters" : [
            {
              "type" : "register_array",
              "value" : "r_last_drop_count"
            },
            {
              "type" : "field",
              "value" : ["scalars", "tmp_13"]
            },
            {
              "type" : "field",
              "value" : ["scalars", "userMetadata._codel_drop_cnt7"]
            }
          ],
          "source_info" : {
            "filename" : "/home/tobias/student_theses/codel/2_switch/4_Priority_Repeater/codel_1.p4",
            "line" : 289,
            "column" : 16,
            "source_fragment" : "r_last_drop_count.write((bit<32>)meta.codel.queue_id, (bit<32>)meta.codel.drop_cnt)"
          }
        }
      ]
    }
  ],
  "pipelines" : [
    {
      "name" : "ingress",
      "id" : 0,
      "source_info" : {
        "filename" : "/home/tobias/student_theses/codel/2_switch/4_Priority_Repeater/codel_1.p4",
        "line" : 143,
        "column" : 8,
        "source_fragment" : "ingress"
      },
      "init_table" : "ingress.slice_forwarding",
      "tables" : [
        {
          "name" : "ingress.slice_forwarding",
          "id" : 0,
          "source_info" : {
            "filename" : "/home/tobias/student_theses/codel/2_switch/4_Priority_Repeater/codel_1.p4",
            "line" : 154,
            "column" : 10,
            "source_fragment" : "slice_forwarding"
          },
          "key" : [
            {
              "match_type" : "exact",
              "name" : "hdr.ipv4.srcAddr",
              "target" : ["ipv4", "srcAddr"],
              "mask" : null
            },
            {
              "match_type" : "lpm",
              "name" : "hdr.ipv4.dstAddr",
              "target" : ["ipv4", "dstAddr"],
              "mask" : null
            }
          ],
          "match_type" : "lpm",
          "type" : "simple",
          "max_size" : 1024,
          "with_counters" : false,
          "support_timeout" : false,
          "direct_meters" : null,
          "action_ids" : [2, 1, 0],
          "actions" : ["ingress.forward_slicing", "ingress.drop", "NoAction"],
          "base_default_next" : "ingress.slice_priority",
          "next_tables" : {
            "ingress.forward_slicing" : "ingress.slice_priority",
            "ingress.drop" : "ingress.slice_priority",
            "NoAction" : "ingress.slice_priority"
          },
          "default_entry" : {
            "action_id" : 0,
            "action_const" : false,
            "action_data" : [],
            "action_entry_const" : false
          }
        },
        {
          "name" : "ingress.slice_priority",
          "id" : 1,
          "source_info" : {
            "filename" : "/home/tobias/student_theses/codel/2_switch/4_Priority_Repeater/codel_1.p4",
            "line" : 174,
            "column" : 10,
            "source_fragment" : "slice_priority"
          },
          "key" : [
            {
              "match_type" : "lpm",
              "name" : "hdr.ipv4.srcAddr",
              "target" : ["ipv4", "srcAddr"],
              "mask" : null
            }
          ],
          "match_type" : "lpm",
          "type" : "simple",
          "max_size" : 32,
          "with_counters" : false,
          "support_timeout" : false,
          "direct_meters" : null,
          "action_ids" : [3],
          "actions" : ["ingress.set_priority"],
          "base_default_next" : null,
          "next_tables" : {
            "ingress.set_priority" : null
          },
          "default_entry" : {
            "action_id" : 3,
            "action_const" : false,
            "action_data" : ["0x0"],
            "action_entry_const" : false
          }
        }
      ],
      "action_profiles" : [],
      "conditionals" : []
    },
    {
      "name" : "egress",
      "id" : 1,
      "source_info" : {
        "filename" : "/home/tobias/student_theses/codel/2_switch/4_Priority_Repeater/codel_1.p4",
        "line" : 300,
        "column" : 8,
        "source_fragment" : "egress"
      },
      "init_table" : "tbl_codel_1l307",
      "tables" : [
        {
          "name" : "tbl_codel_1l307",
          "id" : 2,
          "source_info" : {
            "filename" : "/home/tobias/student_theses/codel/2_switch/4_Priority_Repeater/codel_1.p4",
            "line" : 307,
            "column" : 24,
            "source_fragment" : "="
          },
          "key" : [],
          "match_type" : "exact",
          "type" : "simple",
          "max_size" : 1024,
          "with_counters" : false,
          "support_timeout" : false,
          "direct_meters" : null,
          "action_ids" : [8],
          "actions" : ["codel_1l307"],
          "base_default_next" : "tbl_c_codel_0_a_codel_init",
          "next_tables" : {
            "codel_1l307" : "tbl_c_codel_0_a_codel_init"
          },
          "default_entry" : {
            "action_id" : 8,
            "action_const" : true,
            "action_data" : [],
            "action_entry_const" : true
          }
        },
        {
          "name" : "tbl_c_codel_0_a_codel_init",
          "id" : 3,
          "source_info" : {
            "filename" : "/home/tobias/student_theses/codel/2_switch/4_Priority_Repeater/codel_1.p4",
            "line" : 236,
            "column" : 8,
            "source_fragment" : "a_codel_init()"
          },
          "key" : [],
          "match_type" : "exact",
          "type" : "simple",
          "max_size" : 1024,
          "with_counters" : false,
          "support_timeout" : false,
          "direct_meters" : null,
          "action_ids" : [6],
          "actions" : ["egress.c_codel_0.a_codel_init"],
          "base_default_next" : "node_8",
          "next_tables" : {
            "egress.c_codel_0.a_codel_init" : "node_8"
          },
          "default_entry" : {
            "action_id" : 6,
            "action_const" : true,
            "action_data" : [],
            "action_entry_const" : true
          }
        },
        {
          "name" : "tbl_codel_1l239",
          "id" : 4,
          "source_info" : {
            "filename" : "/home/tobias/student_theses/codel/2_switch/4_Priority_Repeater/codel_1.p4",
            "line" : 239,
            "column" : 32,
            "source_fragment" : "="
          },
          "key" : [],
          "match_type" : "exact",
          "type" : "simple",
          "max_size" : 1024,
          "with_counters" : false,
          "support_timeout" : false,
          "direct_meters" : null,
          "action_ids" : [9],
          "actions" : ["codel_1l239"],
          "base_default_next" : "node_10",
          "next_tables" : {
            "codel_1l239" : "node_10"
          },
          "default_entry" : {
            "action_id" : 9,
            "action_const" : true,
            "action_data" : [],
            "action_entry_const" : true
          }
        },
        {
          "name" : "tbl_codel_1l244",
          "id" : 5,
          "source_info" : {
            "filename" : "/home/tobias/student_theses/codel/2_switch/4_Priority_Repeater/codel_1.p4",
            "line" : 244,
            "column" : 12,
            "source_fragment" : "r_drop_time.write((bit<32>)meta.codel.queue_id, (bit<48>)0); ..."
          },
          "key" : [],
          "match_type" : "exact",
          "type" : "simple",
          "max_size" : 1024,
          "with_counters" : false,
          "support_timeout" : false,
          "direct_meters" : null,
          "action_ids" : [10],
          "actions" : ["codel_1l244"],
          "base_default_next" : "node_16",
          "next_tables" : {
            "codel_1l244" : "node_16"
          },
          "default_entry" : {
            "action_id" : 10,
            "action_const" : true,
            "action_data" : [],
            "action_entry_const" : true
          }
        },
        {
          "name" : "tbl_codel_1l250",
          "id" : 6,
          "source_info" : {
            "filename" : "/home/tobias/student_theses/codel/2_switch/4_Priority_Repeater/codel_1.p4",
            "line" : 250,
            "column" : 16,
            "source_fragment" : "r_drop_time.write((bit<32>)meta.codel.queue_id, (bit<48>)meta.codel.new_drop_time); ..."
          },
          "key" : [],
          "match_type" : "exact",
          "type" : "simple",
          "max_size" : 1024,
          "with_counters" : false,
          "support_timeout" : false,
          "direct_meters" : null,
          "action_ids" : [11],
          "actions" : ["codel_1l250"],
          "base_default_next" : "node_16",
          "next_tables" : {
            "codel_1l250" : "node_16"
          },
          "default_entry" : {
            "action_id" : 11,
            "action_const" : true,
            "action_data" : [],
            "action_entry_const" : true
          }
        },
        {
          "name" : "tbl_codel_1l255",
          "id" : 7,
          "source_info" : {
            "filename" : "/home/tobias/student_theses/codel/2_switch/4_Priority_Repeater/codel_1.p4",
            "line" : 255,
            "column" : 42,
            "source_fragment" : "="
          },
          "key" : [],
          "match_type" : "exact",
          "type" : "simple",
          "max_size" : 1024,
          "with_counters" : false,
          "support_timeout" : false,
          "direct_meters" : null,
          "action_ids" : [12],
          "actions" : ["codel_1l255"],
          "base_default_next" : "node_16",
          "next_tables" : {
            "codel_1l255" : "node_16"
          },
          "default_entry" : {
            "action_id" : 12,
            "action_const" : true,
            "action_data" : [],
            "action_entry_const" : true
          }
        },
        {
          "name" : "tbl_codel_1l265",
          "id" : 8,
          "source_info" : {
            "filename" : "/home/tobias/student_theses/codel/2_switch/4_Priority_Repeater/codel_1.p4",
            "line" : 265,
            "column" : 16,
            "source_fragment" : "r_state_dropping.write((bit<32>)meta.codel.queue_id, (bit<1>)0)"
          },
          "key" : [],
          "match_type" : "exact",
          "type" : "simple",
          "max_size" : 1024,
          "with_counters" : false,
          "support_timeout" : false,
          "direct_meters" : null,
          "action_ids" : [13],
          "actions" : ["codel_1l265"],
          "base_default_next" : null,
          "next_tables" : {
            "codel_1l265" : null
          },
          "default_entry" : {
            "action_id" : 13,
            "action_const" : true,
            "action_data" : [],
            "action_entry_const" : true
          }
        },
        {
          "name" : "tbl_codel_1l272",
          "id" : 9,
          "source_info" : {
            "filename" : "/home/tobias/student_theses/codel/2_switch/4_Priority_Repeater/codel_1.p4",
            "line" : 272,
            "column" : 4,
            "source_fragment" : "mark_to_drop(standard_metadata); ..."
          },
          "key" : [],
          "match_type" : "exact",
          "type" : "simple",
          "max_size" : 1024,
          "with_counters" : false,
          "support_timeout" : false,
          "direct_meters" : null,
          "action_ids" : [14],
          "actions" : ["codel_1l272"],
          "base_default_next" : "egress.c_codel_0.t_codel_control_law",
          "next_tables" : {
            "codel_1l272" : "egress.c_codel_0.t_codel_control_law"
          },
          "default_entry" : {
            "action_id" : 14,
            "action_const" : true,
            "action_data" : [],
            "action_entry_const" : true
          }
        },
        {
          "name" : "egress.c_codel_0.t_codel_control_law",
          "id" : 10,
          "source_info" : {
            "filename" : "/home/tobias/student_theses/codel/2_switch/4_Priority_Repeater/codel_1.p4",
            "line" : 225,
            "column" : 10,
            "source_fragment" : "t_codel_control_law"
          },
          "key" : [
            {
              "match_type" : "lpm",
              "name" : "meta.codel.drop_cnt",
              "target" : ["scalars", "userMetadata._codel_drop_cnt7"],
              "mask" : null
            }
          ],
          "match_type" : "lpm",
          "type" : "simple",
          "max_size" : 32,
          "with_counters" : false,
          "support_timeout" : false,
          "direct_meters" : null,
          "action_ids" : [5, 4],
          "actions" : ["egress.c_codel_0.a_codel_control_law", "NoAction"],
          "base_default_next" : null,
          "next_tables" : {
            "egress.c_codel_0.a_codel_control_law" : null,
            "NoAction" : null
          },
          "default_entry" : {
            "action_id" : 4,
            "action_const" : false,
            "action_data" : [],
            "action_entry_const" : false
          }
        },
        {
          "name" : "tbl_c_codel_0_a_go_to_drop_state",
          "id" : 11,
          "source_info" : {
            "filename" : "/home/tobias/student_theses/codel/2_switch/4_Priority_Repeater/codel_1.p4",
            "line" : 283,
            "column" : 20,
            "source_fragment" : "a_go_to_drop_state()"
          },
          "key" : [],
          "match_type" : "exact",
          "type" : "simple",
          "max_size" : 1024,
          "with_counters" : false,
          "support_timeout" : false,
          "direct_meters" : null,
          "action_ids" : [7],
          "actions" : ["egress.c_codel_0.a_go_to_drop_state"],
          "base_default_next" : "node_26",
          "next_tables" : {
            "egress.c_codel_0.a_go_to_drop_state" : "node_26"
          },
          "default_entry" : {
            "action_id" : 7,
            "action_const" : true,
            "action_data" : [],
            "action_entry_const" : true
          }
        },
        {
          "name" : "tbl_codel_1l286",
          "id" : 12,
          "source_info" : {
            "filename" : "/home/tobias/student_theses/codel/2_switch/4_Priority_Repeater/codel_1.p4",
            "line" : 286,
            "column" : 20,
            "source_fragment" : "r_drop_count.write((bit<32>)meta.codel.queue_id, (bit<32>)meta.codel.delta); ..."
          },
          "key" : [],
          "match_type" : "exact",
          "type" : "simple",
          "max_size" : 1024,
          "with_counters" : false,
          "support_timeout" : false,
          "direct_meters" : null,
          "action_ids" : [15],
          "actions" : ["codel_1l286"],
          "base_default_next" : "tbl_codel_1l289",
          "next_tables" : {
            "codel_1l286" : "tbl_codel_1l289"
          },
          "default_entry" : {
            "action_id" : 15,
            "action_const" : true,
            "action_data" : [],
            "action_entry_const" : true
          }
        },
        {
          "name" : "tbl_codel_1l289",
          "id" : 13,
          "source_info" : {
            "filename" : "/home/tobias/student_theses/codel/2_switch/4_Priority_Repeater/codel_1.p4",
            "line" : 289,
            "column" : 16,
            "source_fragment" : "r_last_drop_count.write((bit<32>)meta.codel.queue_id, (bit<32>)meta.codel.drop_cnt)"
          },
          "key" : [],
          "match_type" : "exact",
          "type" : "simple",
          "max_size" : 1024,
          "with_counters" : false,
          "support_timeout" : false,
          "direct_meters" : null,
          "action_ids" : [16],
          "actions" : ["codel_1l289"],
          "base_default_next" : "egress.c_codel_0.t_codel_control_law",
          "next_tables" : {
            "codel_1l289" : "egress.c_codel_0.t_codel_control_law"
          },
          "default_entry" : {
            "action_id" : 16,
            "action_const" : true,
            "action_data" : [],
            "action_entry_const" : true
          }
        }
      ],
      "action_profiles" : [],
      "conditionals" : [
        {
          "name" : "node_8",
          "id" : 0,
          "source_info" : {
            "filename" : "/home/tobias/student_theses/codel/2_switch/4_Priority_Repeater/codel_1.p4",
            "line" : 238,
            "column" : 5,
            "source_fragment" : "standard_metadata.deq_timedelta < 100"
          },
          "expression" : {
            "type" : "expression",
            "value" : {
              "op" : "<",
              "left" : {
                "type" : "field",
                "value" : ["standard_metadata", "deq_timedelta"]
              },
              "right" : {
                "type" : "hexstr",
                "value" : "0x00000064"
              }
            }
          },
          "true_next" : "tbl_codel_1l239",
          "false_next" : "node_10"
        },
        {
          "name" : "node_10",
          "id" : 1,
          "source_info" : {
            "filename" : "/home/tobias/student_theses/codel/2_switch/4_Priority_Repeater/codel_1.p4",
            "line" : 243,
            "column" : 12,
            "source_fragment" : "meta.codel.reset_drop_time == 1w1"
          },
          "expression" : {
            "type" : "expression",
            "value" : {
              "op" : "==",
              "left" : {
                "type" : "field",
                "value" : ["scalars", "userMetadata._codel_reset_drop_time9"]
              },
              "right" : {
                "type" : "hexstr",
                "value" : "0x01"
              }
            }
          },
          "true_next" : "tbl_codel_1l244",
          "false_next" : "node_12"
        },
        {
          "name" : "node_12",
          "id" : 2,
          "source_info" : {
            "filename" : "/home/tobias/student_theses/codel/2_switch/4_Priority_Repeater/codel_1.p4",
            "line" : 249,
            "column" : 16,
            "source_fragment" : "meta.codel.drop_time == 48w0"
          },
          "expression" : {
            "type" : "expression",
            "value" : {
              "op" : "==",
              "left" : {
                "type" : "field",
                "value" : ["scalars", "userMetadata._codel_drop_time0"]
              },
              "right" : {
                "type" : "hexstr",
                "value" : "0x000000000000"
              }
            }
          },
          "true_next" : "tbl_codel_1l250",
          "false_next" : "node_14"
        },
        {
          "name" : "node_14",
          "id" : 3,
          "source_info" : {
            "filename" : "/home/tobias/student_theses/codel/2_switch/4_Priority_Repeater/codel_1.p4",
            "line" : 254,
            "column" : 20,
            "source_fragment" : "meta.codel.time_now >= meta.codel.drop_time"
          },
          "expression" : {
            "type" : "expression",
            "value" : {
              "op" : ">=",
              "left" : {
                "type" : "field",
                "value" : ["scalars", "userMetadata._codel_time_now1"]
              },
              "right" : {
                "type" : "field",
                "value" : ["scalars", "userMetadata._codel_drop_time0"]
              }
            }
          },
          "true_next" : "tbl_codel_1l255",
          "false_next" : "node_16"
        },
        {
          "name" : "node_16",
          "id" : 4,
          "source_info" : {
            "filename" : "/home/tobias/student_theses/codel/2_switch/4_Priority_Repeater/codel_1.p4",
            "line" : 263,
            "column" : 12,
            "source_fragment" : "meta.codel.state_dropping == 1w1"
          },
          "expression" : {
            "type" : "expression",
            "value" : {
              "op" : "==",
              "left" : {
                "type" : "field",
                "value" : ["scalars", "userMetadata._codel_state_dropping3"]
              },
              "right" : {
                "type" : "hexstr",
                "value" : "0x01"
              }
            }
          },
          "true_next" : "node_17",
          "false_next" : "node_23"
        },
        {
          "name" : "node_17",
          "id" : 5,
          "source_info" : {
            "filename" : "/home/tobias/student_theses/codel/2_switch/4_Priority_Repeater/codel_1.p4",
            "line" : 264,
            "column" : 16,
            "source_fragment" : "meta.codel.ok_to_drop == 1w0"
          },
          "expression" : {
            "type" : "expression",
            "value" : {
              "op" : "==",
              "left" : {
                "type" : "field",
                "value" : ["scalars", "userMetadata._codel_ok_to_drop2"]
              },
              "right" : {
                "type" : "hexstr",
                "value" : "0x00"
              }
            }
          },
          "true_next" : "tbl_codel_1l265",
          "false_next" : "node_19"
        },
        {
          "name" : "node_19",
          "id" : 6,
          "source_info" : {
            "filename" : "/home/tobias/student_theses/codel/2_switch/4_Priority_Repeater/codel_1.p4",
            "line" : 268,
            "column" : 20,
            "source_fragment" : "meta.codel.time_now >= meta.codel.drop_next"
          },
          "expression" : {
            "type" : "expression",
            "value" : {
              "op" : ">=",
              "left" : {
                "type" : "field",
                "value" : ["scalars", "userMetadata._codel_time_now1"]
              },
              "right" : {
                "type" : "field",
                "value" : ["scalars", "userMetadata._codel_drop_next6"]
              }
            }
          },
          "false_next" : null,
          "true_next" : "node_20"
        },
        {
          "name" : "node_20",
          "id" : 7,
          "source_info" : {
            "filename" : "/home/tobias/student_theses/codel/2_switch/4_Priority_Repeater/codel_1.p4",
            "line" : 270,
            "column" : 23,
            "source_fragment" : "standard_metadata.priority == 3w0"
          },
          "expression" : {
            "type" : "expression",
            "value" : {
              "op" : "==",
              "left" : {
                "type" : "field",
                "value" : ["standard_metadata", "priority"]
              },
              "right" : {
                "type" : "hexstr",
                "value" : "0x00"
              }
            }
          },
          "false_next" : null,
          "true_next" : "tbl_codel_1l272"
        },
        {
          "name" : "node_23",
          "id" : 8,
          "source_info" : {
            "filename" : "/home/tobias/student_theses/codel/2_switch/4_Priority_Repeater/codel_1.p4",
            "line" : 281,
            "column" : 16,
            "source_fragment" : "meta.codel.ok_to_drop == 1w1"
          },
          "expression" : {
            "type" : "expression",
            "value" : {
              "op" : "==",
              "left" : {
                "type" : "field",
                "value" : ["scalars", "userMetadata._codel_ok_to_drop2"]
              },
              "right" : {
                "type" : "hexstr",
                "value" : "0x01"
              }
            }
          },
          "false_next" : null,
          "true_next" : "node_24"
        },
        {
          "name" : "node_24",
          "id" : 9,
          "source_info" : {
            "filename" : "/home/tobias/student_theses/codel/2_switch/4_Priority_Repeater/codel_1.p4",
            "line" : 282,
            "column" : 16,
            "source_fragment" : "standard_metadata.priority == 3w0"
          },
          "expression" : {
            "type" : "expression",
            "value" : {
              "op" : "==",
              "left" : {
                "type" : "field",
                "value" : ["standard_metadata", "priority"]
              },
              "right" : {
                "type" : "hexstr",
                "value" : "0x00"
              }
            }
          },
          "true_next" : "tbl_c_codel_0_a_go_to_drop_state",
          "false_next" : "node_26"
        },
        {
          "name" : "node_26",
          "id" : 10,
          "source_info" : {
            "filename" : "/home/tobias/student_theses/codel/2_switch/4_Priority_Repeater/codel_1.p4",
            "line" : 285,
            "column" : 17,
            "source_fragment" : "meta.codel.delta > 32w1 && meta.codel.time_since_last_dropping < 48w1000*16"
          },
          "expression" : {
            "type" : "expression",
            "value" : {
              "op" : "and",
              "left" : {
                "type" : "expression",
                "value" : {
                  "op" : ">",
                  "left" : {
                    "type" : "field",
                    "value" : ["scalars", "userMetadata._codel_delta4"]
                  },
                  "right" : {
                    "type" : "hexstr",
                    "value" : "0x00000001"
                  }
                }
              },
              "right" : {
                "type" : "expression",
                "value" : {
                  "op" : "<",
                  "left" : {
                    "type" : "field",
                    "value" : ["scalars", "userMetadata._codel_time_since_last_dropping5"]
                  },
                  "right" : {
                    "type" : "hexstr",
                    "value" : "0x000000003e80"
                  }
                }
              }
            }
          },
          "true_next" : "tbl_codel_1l286",
          "false_next" : "tbl_codel_1l289"
        }
      ]
    }
  ],
  "checksums" : [
    {
      "name" : "cksum",
      "id" : 0,
      "source_info" : {
        "filename" : "/home/tobias/student_theses/codel/2_switch/4_Priority_Repeater/codel_1.p4",
        "line" : 320,
        "column" : 8,
        "source_fragment" : "update_checksum( ..."
      },
      "target" : ["ipv4", "hdrChecksum"],
      "type" : "generic",
      "calculation" : "calc",
      "verify" : false,
      "update" : true,
      "if_cond" : {
        "type" : "bool",
        "value" : true
      }
    }
  ],
  "force_arith" : [],
  "extern_instances" : [],
  "field_aliases" : [
    [
      "queueing_metadata.enq_timestamp",
      ["standard_metadata", "enq_timestamp"]
    ],
    [
      "queueing_metadata.enq_qdepth",
      ["standard_metadata", "enq_qdepth"]
    ],
    [
      "queueing_metadata.deq_timedelta",
      ["standard_metadata", "deq_timedelta"]
    ],
    [
      "queueing_metadata.deq_qdepth",
      ["standard_metadata", "deq_qdepth"]
    ],
    [
      "intrinsic_metadata.ingress_global_timestamp",
      ["standard_metadata", "ingress_global_timestamp"]
    ],
    [
      "intrinsic_metadata.egress_global_timestamp",
      ["standard_metadata", "egress_global_timestamp"]
    ],
    [
      "intrinsic_metadata.mcast_grp",
      ["standard_metadata", "mcast_grp"]
    ],
    [
      "intrinsic_metadata.egress_rid",
      ["standard_metadata", "egress_rid"]
    ],
    [
      "intrinsic_metadata.priority",
      ["standard_metadata", "priority"]
    ],
    [
      "queueing_metadata.qid",
      ["standard_metadata", "qid"]
    ]
  ],
  "program" : "/home/tobias/student_theses/codel/2_switch/4_Priority_Repeater/codel_1.p4i",
  "__meta__" : {
    "version" : [2, 23],
    "compiler" : "https://github.com/p4lang/p4c"
  }
}